[
  {
    "count": 0,
    "data": [
      {
        "text": "exit",
        "userDefined": false
      }
    ],
    "isTemplate": false
  },
  {
    "count": 0,
    "data": [
      {
        "text": "no more",
        "userDefined": false
      }
    ],
    "isTemplate": false
  },
  {
    "count": 0,
    "data": [
      {
        "text": "no",
        "userDefined": false
      }
    ],
    "isTemplate": false
  }
]