{
  "auto": true,
  "contexts": [
    "expect_yes_no_for_joke"
  ],
  "events": [],
  "fallbackIntent": false,
  "name": "no not another joke",
  "priority": 500000,
  "responses": [
    {
      "affectedContexts": [
        {
          "lifespan": 0,
          "name": "expect_yes_no_for_joke",
          "parameters": {}
        }
      ],
      "defaultResponsePlatforms": {},
      "messages": [
        {
          "lang": "en",
          "speech": "Okay! Let's talk again soon! Goodbye!",
          "type": 0
        }
      ],
      "parameters": [],
      "resetContexts": false,
      "speech": []
    }
  ],
  "webhookForSlotFilling": false,
  "webhookUsed": true
}