[
  {
    "count": 0,
    "data": [
      {
        "text": "another one",
        "userDefined": false
      }
    ],
    "isTemplate": false
  },
  {
    "count": 0,
    "data": [
      {
        "text": "one more",
        "userDefined": false
      }
    ],
    "isTemplate": false
  },
  {
    "count": 0,
    "data": [
      {
        "text": "yep",
        "userDefined": false
      }
    ],
    "isTemplate": false
  },
  {
    "count": 0,
    "data": [
      {
        "text": "yup",
        "userDefined": false
      }
    ],
    "isTemplate": false
  },
  {
    "count": 0,
    "data": [
      {
        "text": "go ahead",
        "userDefined": false
      }
    ],
    "isTemplate": false
  },
  {
    "count": 0,
    "data": [
      {
        "text": "sure",
        "userDefined": false
      }
    ],
    "isTemplate": false
  },
  {
    "count": 0,
    "data": [
      {
        "text": "okay",
        "userDefined": false
      }
    ],
    "isTemplate": false
  },
  {
    "count": 0,
    "data": [
      {
        "text": "yeah",
        "userDefined": false
      }
    ],
    "isTemplate": false
  },
  {
    "count": 0,
    "data": [
      {
        "text": "yes",
        "userDefined": false
      }
    ],
    "isTemplate": false
  }
]